2 Chi-squared analysis of count data – CORN276-RMGIS
…
All these are true for the ladybird study.

2.3.1.1 Hypotheses

What do you think a suitable hypothesis should be for this investigation, and what would the corresponding null hypothesis be?

The null hypotheses could be: H0: There is no association between habitat and ladybird colour. This means that whatever the proportion is of black to red ladybirds, it is the same in both habitats.

The alternate hypothesis could be: H1: There is an association between habitat and ladybird colour. That is, the proportion of red to black differs between the two habitats.

2.3.1.2 The data

The data consist of counts of the number of ladybirds of each colour that were observed in 5 rural sites and 5 industrial sites. These data are in tidy form, with one variable per column. There are 20 rows, with each row containing the count of either red or black ladybirds found at a given site.

# A tibble: 20 × 4
  Habitat Site  morph_colour number
  <chr>   <chr> <chr>         <dbl>
1 Rural   R1    black            10
2 Rural   R2    black             3
3 Rural   R3    black             4
4 Rural   R4    black             7
5 Rural   R5    black             6
6 Rural   R1    red              15
# ℹ 14 more rows
…
